…
Study if hired members proportion would affect the success.

common_mounts<-expeditions%>%
  count(peak_name)%>%filter(n>15)

common_mounts

## # A tibble: 48 x 2
##    peak_name           n
##    <chr>           <int>
##  1 Ama Dablam       1366
##  2 Annapurna I       243
##  3 Annapurna II       35
##  4 Annapurna III      36
##  5 Annapurna IV       97
##  6 Annapurna South    36
##  7 Api Main           18
##  8 Baruntse          308
##  9 Bhrikuti           20
## 10 Chamlang           24
## # … with 38 more rows
…
