…
## 
##  Downloading file 1 of 2: `cocktails.csv`
##  Downloading file 2 of 2: `boston_cocktails.csv`

cocktails<-tuesdata$cocktails
boston_cocktails <-tuesdata$boston_cocktails

After importing the data, I wonder what is the difference between these two, so I calculate the number of drinks incorporated in them and find out that the boston_cocktails contains more type of drinks. In addition, notice that the boston_cocktails has a more uniform units for the measure column, which would facilitate our construction of the interactive bar plot. Thus, we will stick with the boston datasets for the rest of the project.

library(stringr)

cocktails%>%distinct(drink)

## # A tibble: 546 x 1
##    drink                               
##    <chr>                               
##  1 '57 Chevy with a White License Plate
##  2 1-900-FUK-MEUP                      
##  3 110 in the shade                    
##  4 151 Florida Bushwacker              
##  5 155 Belmont                         
##  6 24k nightmare                       
##  7 252                                 
##  8 3 Wise Men                          
##  9 3-Mile Long Island Iced Tea         
## 10 410 Gone                            
## # … with 536 more rows

cocktails%>%datatable()

boston_cocktails%>%distinct(name)

## # A tibble: 989 x 1
##    name                
##    <chr>               
##  1 Gauguin             
##  2 Fort Lauderdale     
##  3 Apple Pie           
##  4 Cuban Cocktail No. 1
##  5 Cool Carlos         
##  6 John Collins        
##  7 Cherry Rum          
##  8 Casa Blanca         
##  9 Caribbean Champagne 
## 10 Amber Amour         
## # … with 979 more rows
…
## Warning in eval_tidy(pair$rhs, env = default_env): NAs introduced by coercion

## `summarise()` regrouping output by 'name', 'category', 'ingredient_number' (override with `.groups` argument)

boston_cocktails_clean

## # A tibble: 3,622 x 5
## # Groups:   name, category, ingredient_number [3,622]
##    name         category         ingredient_numb… ingredient             measure
##    <chr>        <chr>                       <dbl> <chr>                    <dbl>
##  1 1626         Whiskies                        1 Bourbon whiskey           2.5 
##  2 1626         Whiskies                        2 Gingerbread liqueur       0.75
##  3 1626         Whiskies                        3 cherry-flavored brandy    0.5 
##  4 1626         Whiskies                        4 Angostura Bitters         2   
##  5 1626         Whiskies                        5 Italian preserved che…    1   
##  6 19th Century Whiskies                        1 Bourbon whiskey           1.5 
##  7 19th Century Whiskies                        2 Fresh lemon juice         0.75
##  8 19th Century Whiskies                        3 White creme de cacao      0.75
##  9 19th Century Whiskies                        4 Lillet Rouge              0.75
## 10 A. J.        Cocktail Classi…                1 Applejack                 1.5 
## # … with 3,612 more rows
…
