…
actors<-office_info%>%count(episode_name, character)%>%
    add_count(character)%>%
    filter(nn >800)%>%
    select(-nn)%>%
    pivot_wider(names_from = character, values_from = n, values_fill = 0)

## Using `n` as weighting variable
## ℹ Quiet this message with `wt = n` or count rows with `wt = 1`

## Storing counts in `nn`, as `n` already present in input
## ℹ Use `name = "new_name"` to pick a new name.

actors

## # A tibble: 185 x 16
##    episode_name  Andy Angela Darryl Dwight   Jim Kelly Kevin Michael Oscar   Pam
##    <chr>        <int>  <int>  <int>  <int> <int> <int> <int>   <int> <int> <int>
##  1 a benihana …    28     37      3     61    44     5    14     108     1    57
##  2 aarm            44     39     30     87    89     0    30       0    28    34
##  3 after hours     20     11     14     60    55     8     4       0    10    15
##  4 alliance         0      7      0     47    49     0     3      68    14    22
##  5 angry y         53      7      5     16    19    13     9       0     7    29
##  6 baby shower     13     13      9     35    27     2     4      79     3    25
##  7 back from v…     3      4      6     22    25     0     5      70     0    33
##  8 banker           1      2      0     17     0     0     2      44     0     5
##  9 basketball       0      3     15     25    21     0     1     104     2    14
## 10 beach games     18      8      0     38    22     9     5     105     5    23
## # … with 175 more rows, and 5 more variables: Phyllis <int>, Ryan <int>,
## #   Toby <int>, Erin <int>, Jan <int>

creators <- office_info%>%distinct(episode_name,director,writer)%>%
  separate_rows(writer,sep = ";")%>%
  pivot_longer(director:writer,names_to = "job",values_to = "name")%>%
  add_count(name)%>%filter(n>10)%>%mutate(count = 1)%>%
  distinct(episode_name,name,count)%>%
  pivot_wider(names_from = name,values_from = count, values_fill = 0)

creators

## # A tibble: 135 x 14
##    episode_name `Ken Kwapis` `Greg Daniels` `B.J. Novak` `Paul Lieberste…
##    <chr>               <dbl>          <dbl>        <dbl>            <dbl>
##  1 pilot                   1              1            0                0
##  2 diversity d…            1              0            1                0
##  3 health care             0              0            0                1
##  4 basketball              0              1            0                0
##  5 hot girl                0              0            0                0
##  6 dundies                 0              1            0                0
##  7 sexual hara…            1              0            1                0
##  8 office olym…            0              0            0                0
##  9 fire                    1              0            1                0
## 10 halloween               0              1            0                0
## # … with 125 more rows, and 9 more variables: `Mindy Kaling` <dbl>, `Paul
## #   Feig` <dbl>, `Gene Stupnitsky` <dbl>, `Lee Eisenberg` <dbl>, `Jennifer
## #   Celotta` <dbl>, `Randall Einhorn` <dbl>, `Brent Forrester` <dbl>, `Jeffrey
## #   Blitz` <dbl>, `Justin Spitzer` <dbl>
…
staff<-rating_clean%>%
    inner_join(creators)%>%
    inner_join(actors)

## Joining, by = "episode_name"
## Joining, by = "episode_name"

staff

## # A tibble: 134 x 32
##    season episode episode_name rating `Ken Kwapis` `Greg Daniels` `B.J. Novak`
##     <dbl>   <dbl> <chr>         <dbl>        <dbl>          <dbl>        <dbl>
##  1      1       1 pilot           7.6            1              1            0
##  2      1       2 diversity d…    8.3            1              0            1
##  3      1       3 health care     7.9            0              0            0
##  4      1       5 basketball      8.4            0              1            0
##  5      1       6 hot girl        7.8            0              0            0
##  6      2       1 dundies         8.7            0              1            0
##  7      2       2 sexual hara…    8.2            1              0            1
##  8      2       3 office olym…    8.4            0              0            0
##  9      2       4 fire            8.4            1              0            1
## 10      2       5 halloween       8.2            0              1            0
## # … with 124 more rows, and 25 more variables: `Paul Lieberstein` <dbl>, `Mindy
## #   Kaling` <dbl>, `Paul Feig` <dbl>, `Gene Stupnitsky` <dbl>, `Lee
## #   Eisenberg` <dbl>, `Jennifer Celotta` <dbl>, `Randall Einhorn` <dbl>, `Brent
## #   Forrester` <dbl>, `Jeffrey Blitz` <dbl>, `Justin Spitzer` <dbl>,
## #   Andy <int>, Angela <int>, Darryl <int>, Dwight <int>, Jim <int>,
## #   Kelly <int>, Kevin <int>, Michael <int>, Oscar <int>, Pam <int>,
## #   Phyllis <int>, Ryan <int>, Toby <int>, Erin <int>, Jan <int>
…
set.seed(123)
staff_boot<-bootstraps(staff_train, strata = season)

With the help of recipe function, we could do some feature engineering to preprocess the data.

staff_recipe<-recipe(rating~., data = staff_train)%>%
  update_role(episode_name, new_role = "ID")%>%
  step_zv(all_predictors())%>%
  step_corr(all_predictors())%>%
  step_normalize(all_predictors())

prep(staff_recipe)%>%juice()

## # A tibble: 102 x 31
##    season episode episode_name `Ken Kwapis` `Greg Daniels` `B.J. Novak`
##     <dbl>   <dbl> <fct>               <dbl>          <dbl>        <dbl>
##  1  -1.73  -1.54  pilot               3.02           2.49        -0.397
##  2  -1.73  -1.40  diversity d…        3.02          -0.397        2.49 
##  3  -1.73  -1.27  health care        -0.328         -0.397       -0.397
##  4  -1.28  -1.54  dundies            -0.328          2.49        -0.397
##  5  -1.28  -1.40  sexual hara…        3.02          -0.397        2.49 
##  6  -1.28  -1.27  office olym…       -0.328         -0.397       -0.397
##  7  -1.28  -0.991 halloween          -0.328          2.49        -0.397
##  8  -1.28  -0.854 fight               3.02          -0.397       -0.397
##  9  -1.28  -0.717 client             -0.328         -0.397       -0.397
## 10  -1.28  -0.579 performance…       -0.328         -0.397       -0.397
## # … with 92 more rows, and 25 more variables: `Paul Lieberstein` <dbl>, `Mindy
## #   Kaling` <dbl>, `Paul Feig` <dbl>, `Lee Eisenberg` <dbl>, `Jennifer
## #   Celotta` <dbl>, `Randall Einhorn` <dbl>, `Brent Forrester` <dbl>, `Jeffrey
## #   Blitz` <dbl>, `Justin Spitzer` <dbl>, Andy <dbl>, Angela <dbl>,
## #   Darryl <dbl>, Dwight <dbl>, Jim <dbl>, Kelly <dbl>, Kevin <dbl>,
## #   Michael <dbl>, Oscar <dbl>, Pam <dbl>, Phyllis <dbl>, Ryan <dbl>,
## #   Toby <dbl>, Erin <dbl>, Jan <dbl>, rating <dbl>
…
## Warning: package 'glmnet' was built under R version 4.0.2

## Loading required package: Matrix

## 
## Attaching package: 'Matrix'

## The following objects are masked from 'package:tidyr':
## 
##     expand, pack, unpack

## Loaded glmnet 4.0-2

## # A tibble: 30 x 3
##    term             estimate penalty
##    <chr>               <dbl>   <dbl>
##  1 (Intercept)       8.37        0.1
##  2 Jim               0.106       0.1
##  3 Michael           0.0666      0.1
##  4 Greg Daniels      0.0180      0.1
##  5 Jan               0.00399     0.1
##  6 season            0           0.1
##  7 episode           0           0.1
##  8 Ken Kwapis        0           0.1
##  9 B.J. Novak        0           0.1
## 10 Paul Lieberstein  0           0.1
## # … with 20 more rows
Now we are going to tune the penalty parameter.

tune_model <- linear_reg(penalty = tune())%>%set_engine("glmnet")

lambda_grid <- grid_regular(penalty(), levels = 50)

tune_grid<-tune_grid(workflow()%>%add_recipe(staff_recipe)%>%add_model(tune_model),
          resamples = staff_boot,
          grid = lambda_grid)

Now we have two evaluation criteria (rmse and rsq) for the penalties.

tune_grid%>%collect_metrics()

## # A tibble: 100 x 7
##     penalty .metric .estimator   mean     n std_err .config
##       <dbl> <chr>   <chr>       <dbl> <int>   <dbl> <chr>  
##  1 1.00e-10 rmse    standard   0.625     25  0.0119 Model01
##  2 1.00e-10 rsq     standard   0.0679    25  0.0114 Model01
##  3 1.60e-10 rmse    standard   0.625     25  0.0119 Model02
##  4 1.60e-10 rsq     standard   0.0679    25  0.0114 Model02
##  5 2.56e-10 rmse    standard   0.625     25  0.0119 Model03
##  6 2.56e-10 rsq     standard   0.0679    25  0.0114 Model03
##  7 4.09e-10 rmse    standard   0.625     25  0.0119 Model04
##  8 4.09e-10 rsq     standard   0.0679    25  0.0114 Model04
##  9 6.55e-10 rmse    standard   0.625     25  0.0119 Model05
## 10 6.55e-10 rsq     standard   0.0679    25  0.0114 Model05
## # … with 90 more rows
…
