…
tweets <- read_csv("/Users/xuxian/Documents/UCLA related/R/Projects/2016 Presidential election tweet/tweets.csv")

tweets_cleaned <- tweets%>%filter(lang=="en")%>%select(id, handle, text, is_retweet, time,retweet_count,favorite_count)
tweets_cleaned$time<-ymd_hms(tweets_cleaned$time)

After the cleaning, we can take a look at our data here.

tweets_cleaned

## # A tibble: 6,248 x 7
##         id handle text  is_retweet time                retweet_count
##      <dbl> <chr>  <chr> <lgl>      <dttm>                      <dbl>
##  1 7.81e17 Hilla… "The… FALSE      2016-09-28 00:22:34           218
##  2 7.81e17 Hilla… "Las… TRUE       2016-09-27 23:45:00          2445
##  3 7.81e17 Hilla… "Cou… TRUE       2016-09-27 23:26:40          7834
##  4 7.81e17 Hilla… "If … FALSE      2016-09-27 23:08:41           916
##  5 7.81e17 Hilla… "Bot… FALSE      2016-09-27 22:30:27           859
##  6 7.81e17 realD… "Joi… FALSE      2016-09-27 22:13:24          2181
##  7 7.81e17 Hilla… "Thi… FALSE      2016-09-27 21:35:28          1303
##  8 7.81e17 Hilla… "Whe… FALSE      2016-09-27 21:25:31          1833
##  9 7.81e17 realD… "Onc… FALSE      2016-09-27 21:08:22          4132
## 10 7.81e17 Hilla… "3) … TRUE       2016-09-27 21:00:13          1087
## # … with 6,238 more rows, and 1 more variable: favorite_count <dbl>
…
3. Text mining

In this section, we focus on the word usage for Trump’s and Clinton’s tweets. In order to do so, we need to tokenize the text body of tweets into single word.

tweet_token<-tweets_cleaned%>%unnest_tokens(word,text)%>%anti_join(stop_words)%>%filter(!word%in%c("https","t.co"))

## Joining, by = "word"

tweet_token

## # A tibble: 52,603 x 8
##         id handle is_retweet time                retweet_count favorite_count
##      <dbl> <chr>  <lgl>      <dttm>                      <dbl>          <dbl>
##  1 7.81e17 Hilla… FALSE      2016-09-28 00:22:34           218            651
##  2 7.81e17 Hilla… FALSE      2016-09-28 00:22:34           218            651
##  3 7.81e17 Hilla… FALSE      2016-09-28 00:22:34           218            651
##  4 7.81e17 Hilla… FALSE      2016-09-28 00:22:34           218            651
##  5 7.81e17 Hilla… FALSE      2016-09-28 00:22:34           218            651
##  6 7.81e17 Hilla… FALSE      2016-09-28 00:22:34           218            651
##  7 7.81e17 Hilla… TRUE       2016-09-27 23:45:00          2445           5308
##  8 7.81e17 Hilla… TRUE       2016-09-27 23:45:00          2445           5308
##  9 7.81e17 Hilla… TRUE       2016-09-27 23:45:00          2445           5308
## 10 7.81e17 Hilla… TRUE       2016-09-27 23:45:00          2445           5308
## # … with 52,593 more rows, and 2 more variables: date <date>, word <chr>
…
