…
## See spec(...) for full column specifications.

pokemon

## # A tibble: 721 x 23
##    Number Name  Type_1 Type_2 Total    HP Attack Defense Sp_Atk Sp_Def Speed
##     <dbl> <chr> <chr>  <chr>  <dbl> <dbl>  <dbl>   <dbl>  <dbl>  <dbl> <dbl>
##  1      1 Bulb… Grass  Poison   318    45     49      49     65     65    45
##  2      2 Ivys… Grass  Poison   405    60     62      63     80     80    60
##  3      3 Venu… Grass  Poison   525    80     82      83    100    100    80
##  4      4 Char… Fire   <NA>     309    39     52      43     60     50    65
##  5      5 Char… Fire   <NA>     405    58     64      58     80     65    80
##  6      6 Char… Fire   Flying   534    78     84      78    109     85   100
##  7      7 Squi… Water  <NA>     314    44     48      65     50     64    43
##  8      8 Wart… Water  <NA>     405    59     63      80     65     80    58
##  9      9 Blas… Water  <NA>     530    79     83     100     85    105    78
## 10     10 Cate… Bug    <NA>     195    45     30      35     20     20    45
## # … with 711 more rows, and 12 more variables: Generation <dbl>,
## #   isLegendary <lgl>, Color <chr>, hasGender <lgl>, Pr_Male <dbl>,
## #   Egg_Group_1 <chr>, Egg_Group_2 <chr>, hasMegaEvolution <lgl>,
## #   Height_m <dbl>, Weight_kg <dbl>, Catch_Rate <dbl>, Body_Style <chr>
…
## 
## Attaching package: 'themis'

## The following objects are masked from 'package:recipes':
## 
##     step_downsample, step_upsample, tunable.step_downsample,
##     tunable.step_upsample

pokemon_recipe<-recipe(isLegendary~., pokemon_train)%>%step_dummy(all_nominal(),-all_outcomes())%>%step_corr(all_predictors())%>%step_zv(all_predictors())%>%step_normalize(all_predictors())%>%step_smote(isLegendary)

prep(pokemon_recipe)%>%juice()

## # A tibble: 1,490 x 43
##    Number  Total     HP Attack Defense Sp_Atk Sp_Def  Speed Catch_Rate    BMI
##     <dbl>  <dbl>  <dbl>  <dbl>   <dbl>  <dbl>  <dbl>  <dbl>      <dbl>  <dbl>
##  1  -1.76 -0.178 -0.372 -0.500  -0.334  0.355  0.383 -0.219     -0.691 -0.633
##  2  -1.76  0.913  0.406  0.189   0.322  1.04   1.13   0.513     -0.691 -0.377
##  3  -1.75 -0.178 -0.450 -0.431  -0.498  0.355 -0.177  0.513     -0.691 -0.572
##  4  -1.74  0.995  0.328  0.258   0.158  1.34   0.570  1.25      -0.691 -0.230
##  5  -1.74 -1.01  -0.994 -0.982  -0.268 -0.668 -0.214 -0.842     -0.691 -0.156
##  6  -1.73 -0.178 -0.411 -0.465   0.224 -0.156  0.383 -0.293     -0.691 -0.417
##  7  -1.72 -2.09  -0.955 -1.60   -1.25  -1.69  -1.86  -0.768      2.08  -0.210
##  8  -1.72 -2.00  -0.761 -1.95   -0.596 -1.52  -1.67  -1.32       0.299 -0.491
##  9  -1.71 -0.269 -0.372 -1.09   -0.761  0.696  0.383  0.147     -0.691 -0.328
## 10  -1.71 -2.09  -1.15  -1.43   -1.42  -1.69  -1.86  -0.585      2.08  -0.135
## # … with 1,480 more rows, and 33 more variables: isLegendary <fct>,
## #   Generation_X2 <dbl>, Generation_X3 <dbl>, Generation_X4 <dbl>,
## #   Generation_X5 <dbl>, Generation_X6 <dbl>, Color_Blue <dbl>,
## #   Color_Brown <dbl>, Color_Green <dbl>, Color_Grey <dbl>, Color_Pink <dbl>,
## #   Color_Purple <dbl>, Color_Red <dbl>, Color_White <dbl>, Color_Yellow <dbl>,
## #   hasGender_TRUE. <dbl>, type_Dark <dbl>, type_Dragon <dbl>,
## #   type_Electric <dbl>, type_Fairy <dbl>, type_Fighting <dbl>,
## #   type_Fire <dbl>, type_Flying <dbl>, type_Ghost <dbl>, type_Grass <dbl>,
## #   type_Ground <dbl>, type_Ice <dbl>, type_Normal <dbl>, type_Poison <dbl>,
…
