…
## Using `n` as weighting variable
## ℹ Quiet this message with `wt = n` or count rows with `wt = 1`

## Storing counts in `nn`, as `n` already present in input
## ℹ Use `name = "new_name"` to pick a new name.

friends_actors

## # A tibble: 236 x 18
## # Groups:   season, episode [236]
##    season episode `#ALL#` `Chandler Bing` `Joey Tribbiani` `Monica Geller`
##     <dbl>   <dbl>   <int>           <int>            <int>           <int>
##  1      1       1       8              39               39              73
##  2      1       2       2              16                8              28
##  3      1       3      21              36               28              52
##  4      1       4       4              32               24              47
##  5      1       5       0              35               36              33
##  6      1       6      14              58               31              34
##  7      1       7       3              25               27              23
##  8      1       8       3              37               11              34
##  9      1       9       1              28               32              48
## 10      1      10       5              31               19              23
## # … with 226 more rows, and 12 more variables: `Phoebe Buffay` <int>, `Rachel
## #   Green` <int>, `Ross Geller` <int>, `Carol Willick` <int>, `Judy
## #   Geller` <int>, `Janice Litman Goralnik` <int>, `Frank Buffay Jr.` <int>,
## #   `Richard Burke` <int>, `Jack Geller` <int>, `Emily Waltham` <int>, `Mike
## #   Hannigan` <int>, `Charlie Wheeler` <int>
…
friends_creators

## # A tibble: 182 x 13
## # Groups:   season, episode, imdb_rating [182]
##    season episode imdb_rating us_views_millio… `James Burrows` ` Marta Kauffma…
##     <dbl>   <dbl>       <dbl>            <dbl>           <dbl>            <dbl>
##  1      1       1         8.3             21.5               1                1
##  2      1       2         8.1             20.2               1                1
##  3      1       3         8.2             19.5               1                0
##  4      1       4         8.1             19.7               1                0
##  5      1       7         9               23.5               1                0
##  6      1       8         8.1             21.1               1                0
##  7      1       9         8.2             23.1               1                0
##  8      1      10         8.1             19.9               0                0
##  9      1      11         8.2             26.6               1                0
## 10      1      14         8.3             23.8               1                0
## # … with 172 more rows, and 7 more variables: `Peter Bonerz` <dbl>, `Michael
## #   Lembeck` <dbl>, `Gail Mancuso` <dbl>, `Kevin S. Bright` <dbl>, `Gary
## #   Halvorson` <dbl>, ` Ted Cohen` <dbl>, ` Ellen Plummer` <dbl>

friends_staff<-friends_actors%>%inner_join(friends_creators,by = c("season","episode"))%>%
  inner_join(friends_info%>%select(season,episode, title), by= c("season","episode"))

friends_staff

## # A tibble: 182 x 30
## # Groups:   season, episode [182]
##    season episode `#ALL#` `Chandler Bing` `Joey Tribbiani` `Monica Geller`
##     <dbl>   <dbl>   <int>           <int>            <int>           <int>
##  1      1       1       8              39               39              73
##  2      1       2       2              16                8              28
##  3      1       3      21              36               28              52
##  4      1       4       4              32               24              47
##  5      1       7       3              25               27              23
##  6      1       8       3              37               11              34
##  7      1       9       1              28               32              48
##  8      1      10       5              31               19              23
##  9      1      11       3              42               32              41
## 10      1      14       0              40               21              21
## # … with 172 more rows, and 24 more variables: `Phoebe Buffay` <int>, `Rachel
## #   Green` <int>, `Ross Geller` <int>, `Carol Willick` <int>, `Judy
## #   Geller` <int>, `Janice Litman Goralnik` <int>, `Frank Buffay Jr.` <int>,
## #   `Richard Burke` <int>, `Jack Geller` <int>, `Emily Waltham` <int>, `Mike
## #   Hannigan` <int>, `Charlie Wheeler` <int>, imdb_rating <dbl>,
## #   us_views_millions <dbl>, `James Burrows` <dbl>, ` Marta Kauffman` <dbl>,
## #   `Peter Bonerz` <dbl>, `Michael Lembeck` <dbl>, `Gail Mancuso` <dbl>, `Kevin
## #   S. Bright` <dbl>, `Gary Halvorson` <dbl>, ` Ted Cohen` <dbl>, ` Ellen
## #   Plummer` <dbl>, title <chr>
…
friends_boot <- bootstraps(friends_train,strata = season)

friends_recipe<-recipe(imdb_rating~., data =  friends_train)%>%
  update_role(title, new_role = "ID")%>%
  step_normalize(all_predictors())%>%
  step_zv(all_predictors())%>%
  step_corr(all_predictors())

prep(friends_recipe)%>%juice()

## # A tibble: 138 x 30
##    season episode `#ALL#` `Chandler Bing` `Joey Tribbiani` `Monica Geller`
##     <dbl>   <dbl>   <dbl>           <dbl>            <dbl>           <dbl>
##  1  -1.60  -1.57    3.80            0.326            0.298           3.09 
##  2  -1.60  -1.43    0.438          -1.62            -2.00           -0.628
##  3  -1.60  -1.16    1.56           -0.266           -0.812           0.940
##  4  -1.60  -0.619   0.998           0.157           -1.77           -0.133
##  5  -1.60  -0.483  -0.122          -0.604           -0.220           1.02 
##  6  -1.60  -0.347   2.12           -0.350           -1.18           -1.04 
##  7  -1.60  -0.211   0.998           0.580           -0.220           0.445
##  8  -1.60   0.196  -0.681           0.411           -1.03           -1.21 
##  9  -1.60   0.467  -0.122           1.34            -0.664          -1.54 
## 10  -1.60   0.603   0.438          -1.28            -0.664           1.68 
## # … with 128 more rows, and 24 more variables: `Phoebe Buffay` <dbl>, `Rachel
## #   Green` <dbl>, `Ross Geller` <dbl>, `Carol Willick` <dbl>, `Judy
## #   Geller` <dbl>, `Janice Litman Goralnik` <dbl>, `Frank Buffay Jr.` <dbl>,
## #   `Richard Burke` <dbl>, `Jack Geller` <dbl>, `Emily Waltham` <dbl>, `Mike
## #   Hannigan` <dbl>, `Charlie Wheeler` <dbl>, us_views_millions <dbl>, `James
## #   Burrows` <dbl>, ` Marta Kauffman` <dbl>, `Peter Bonerz` <dbl>, `Michael
## #   Lembeck` <dbl>, `Gail Mancuso` <dbl>, `Kevin S. Bright` <dbl>, `Gary
## #   Halvorson` <dbl>, ` Ted Cohen` <dbl>, ` Ellen Plummer` <dbl>, title <fct>,
## #   imdb_rating <dbl>
…
## Warning: package 'glmnet' was built under R version 4.0.2

## Loading required package: Matrix

## 
## Attaching package: 'Matrix'

## The following objects are masked from 'package:tidyr':
## 
##     expand, pack, unpack

## Loaded glmnet 4.0-2

## # A tibble: 29 x 3
##    term                   estimate penalty
##    <chr>                     <dbl>   <dbl>
##  1 (Intercept)              8.50     0.001
##  2 us_views_millions        0.202    0.001
##  3 Monica Geller            0.109    0.001
##  4 Frank Buffay Jr.         0.0804   0.001
##  5 season                   0.0711   0.001
##  6 Ross Geller              0.0551   0.001
##  7 Chandler Bing            0.0505   0.001
##  8 Richard Burke            0.0319   0.001
##  9 #ALL#                    0.0291   0.001
## 10 Janice Litman Goralnik   0.0205   0.001
## # … with 19 more rows
…
