…
2. Preliminary data analysis

First, we need to import our data and loading the packages we are going to use.

library(tidyverse)
library(tidymodels)
library(plotly)
campus <- read_csv("/Users/xuxian/Documents/UCLA related/R/Projects/tidymodel/campus recruit/campus recruit.csv")
theme_set(theme_light())

We can take a look at the data we have. Notice that the names of the columns could be really confusing, so we need to change them into clearer names.

campus

## # A tibble: 215 x 15
##    sl_no gender ssc_p ssc_b hsc_p hsc_b hsc_s degree_p degree_t workex etest_p
##    <dbl> <chr>  <dbl> <chr> <dbl> <chr> <chr>    <dbl> <chr>    <chr>    <dbl>
##  1     1 M       67   Othe…  91   Othe… Comm…     58   Sci&Tech No        55  
##  2     2 M       79.3 Cent…  78.3 Othe… Scie…     77.5 Sci&Tech Yes       86.5
##  3     3 M       65   Cent…  68   Cent… Arts      64   Comm&Mg… No        75  
##  4     4 M       56   Cent…  52   Cent… Scie…     52   Sci&Tech No        66  
##  5     5 M       85.8 Cent…  73.6 Cent… Comm…     73.3 Comm&Mg… No        96.8
##  6     6 M       55   Othe…  49.8 Othe… Scie…     67.2 Sci&Tech Yes       55  
##  7     7 F       46   Othe…  49.2 Othe… Comm…     79   Comm&Mg… No        74.3
##  8     8 M       82   Cent…  64   Cent… Scie…     66   Sci&Tech Yes       67  
##  9     9 M       73   Cent…  79   Cent… Comm…     72   Comm&Mg… No        91.3
## 10    10 M       58   Cent…  70   Cent… Comm…     61   Comm&Mg… No        54  
## # … with 205 more rows, and 4 more variables: specialisation <chr>,
## #   mba_p <dbl>, status <chr>, salary <dbl>
campus<-campus%>%transmute(sl_no,gender,
                   middle_school_score = ssc_p,
                   middle_school_board = ssc_b,
                   high_school_score = hsc_p, 
                   high_school_board = hsc_b, 
                   high_school_special = hsc_s, 
                   college_score = degree_p, 
                   college_major = degree_t, 
                   workex, employ_test = etest_p,
                   mba_special = specialisation,
                   mba_score = mba_p, status,
                   salary)
campus

## # A tibble: 215 x 15
##    sl_no gender middle_school_s… middle_school_b… high_school_sco…
##    <dbl> <chr>             <dbl> <chr>                       <dbl>
##  1     1 M                  67   Others                       91  
##  2     2 M                  79.3 Central                      78.3
##  3     3 M                  65   Central                      68  
##  4     4 M                  56   Central                      52  
##  5     5 M                  85.8 Central                      73.6
##  6     6 M                  55   Others                       49.8
##  7     7 F                  46   Others                       49.2
##  8     8 M                  82   Central                      64  
##  9     9 M                  73   Central                      79  
## 10    10 M                  58   Central                      70  
## # … with 205 more rows, and 10 more variables: high_school_board <chr>,
## #   high_school_special <chr>, college_score <dbl>, college_major <chr>,
## #   workex <chr>, employ_test <dbl>, mba_special <chr>, mba_score <dbl>,
## #   status <chr>, salary <dbl>
…
campus_boot <- bootstraps(campus_train)

After getting the training data, we will pre-process our data with the help of recipe function in the tidymodels package.

campus_recipe<-recipe(status~., data = campus_train)%>%
  step_dummy(all_nominal(), -all_outcomes())%>%
  step_knnimpute(salary)%>%
  step_normalize(all_predictors())%>%
  step_corr(all_predictors())%>%
  step_zv(all_predictors())

prep(campus_recipe)%>%juice()

## # A tibble: 162 x 16
##    middle_school_s… high_school_sco… college_score employ_test mba_score  salary
##               <dbl>            <dbl>         <dbl>       <dbl>     <dbl>   <dbl>
##  1          -0.0872           2.37         -1.17        -1.25    -0.606  -0.171 
##  2           1.11             1.11          1.57         1.10     0.673  -0.996 
##  3          -0.281            0.0875       -0.325        0.239   -0.777  -0.407 
##  4          -1.15            -1.50         -2.01        -0.431   -0.498   0.784 
##  5           1.73             0.642         0.980        1.86    -1.17    1.66  
##  6          -1.25            -1.72          0.131       -1.25    -1.84   -0.0179
##  7           1.36            -0.309        -0.0442      -0.356   -0.0345 -0.383 
##  8           0.493            1.18          0.798        1.46    -0.180  -0.631 
##  9          -0.958            0.286        -0.746       -1.32    -1.73    0.0175
## 10          -0.958           -0.606        -0.886       -0.729   -0.255  -0.289 
## # … with 152 more rows, and 10 more variables: status <fct>, gender_M <dbl>,
## #   middle_school_board_Others <dbl>, high_school_board_Others <dbl>,
## #   high_school_special_Commerce <dbl>, high_school_special_Science <dbl>,
## #   college_major_Others <dbl>, college_major_Sci.Tech <dbl>, workex_Yes <dbl>,
## #   mba_special_Mkt.HR <dbl>
…
